^C:\MYSTUFF\TESTENGINE\THUNDER\SOURCE\CORE\CORE.CPP
/c /IC:\MYSTUFF\TESTENGINE\\THUNDER\SOURCE /ZI /JMC /nologo /W3 /WX- /diagnostics:column /sdl /Od /D _DEBUG /D WIN32 /D BUILD_DLL /D _WINDLL /D _UNICODE /D UNICODE /Gm- /EHsc /RTC1 /MDd /GS /fp:precise /Zc:wchar_t /Zc:forScope /Zc:inline /std:c++20 /permissive- /Yc"Thunder.h" /Fp"C:\MYSTUFF\TESTENGINE\\THUNDER\INTERMEDIATE\THUNDER\DEBUG\THUNDER.PCH" /Fo"C:\MYSTUFF\TESTENGINE\\THUNDER\INTERMEDIATE\THUNDER\DEBUG\\" /Fd"C:\MYSTUFF\TESTENGINE\\THUNDER\INTERMEDIATE\THUNDER\DEBUG\VC143.PDB" /external:W3 /Gd /TP /FC C:\MYSTUFF\TESTENGINE\THUNDER\SOURCE\CORE\CORE.CPP
^C:\MYSTUFF\TESTENGINE\THUNDER\SOURCE\CORE\COREMINIMAL.CPP
/c /IC:\MYSTUFF\TESTENGINE\\THUNDER\SOURCE /ZI /JMC /nologo /W3 /WX- /diagnostics:column /sdl /Od /D _DEBUG /D WIN32 /D BUILD_DLL /D _WINDLL /D _UNICODE /D UNICODE /Gm- /EHsc /RTC1 /MDd /GS /fp:precise /Zc:wchar_t /Zc:forScope /Zc:inline /std:c++20 /permissive- /Yc"Thunder.h" /Fp"C:\MYSTUFF\TESTENGINE\\THUNDER\INTERMEDIATE\THUNDER\DEBUG\THUNDER.PCH" /Fo"C:\MYSTUFF\TESTENGINE\\THUNDER\INTERMEDIATE\THUNDER\DEBUG\\" /Fd"C:\MYSTUFF\TESTENGINE\\THUNDER\INTERMEDIATE\THUNDER\DEBUG\VC143.PDB" /external:W3 /Gd /TP /FC C:\MYSTUFF\TESTENGINE\THUNDER\SOURCE\CORE\COREMINIMAL.CPP
^C:\MYSTUFF\TESTENGINE\THUNDER\SOURCE\CORE\DEFINITIONS.CPP
/c /IC:\MYSTUFF\TESTENGINE\\THUNDER\SOURCE /ZI /JMC /nologo /W3 /WX- /diagnostics:column /sdl /Od /D _DEBUG /D WIN32 /D BUILD_DLL /D _WINDLL /D _UNICODE /D UNICODE /Gm- /EHsc /RTC1 /MDd /GS /fp:precise /Zc:wchar_t /Zc:forScope /Zc:inline /std:c++20 /permissive- /Yc"Thunder.h" /Fp"C:\MYSTUFF\TESTENGINE\\THUNDER\INTERMEDIATE\THUNDER\DEBUG\THUNDER.PCH" /Fo"C:\MYSTUFF\TESTENGINE\\THUNDER\INTERMEDIATE\THUNDER\DEBUG\\" /Fd"C:\MYSTUFF\TESTENGINE\\THUNDER\INTERMEDIATE\THUNDER\DEBUG\VC143.PDB" /external:W3 /Gd /TP /FC C:\MYSTUFF\TESTENGINE\THUNDER\SOURCE\CORE\DEFINITIONS.CPP
^C:\MYSTUFF\TESTENGINE\THUNDER\SOURCE\CORE\PERGAMESETTINGS.CPP
/c /IC:\MYSTUFF\TESTENGINE\\THUNDER\SOURCE /ZI /JMC /nologo /W3 /WX- /diagnostics:column /sdl /Od /D _DEBUG /D WIN32 /D BUILD_DLL /D _WINDLL /D _UNICODE /D UNICODE /Gm- /EHsc /RTC1 /MDd /GS /fp:precise /Zc:wchar_t /Zc:forScope /Zc:inline /std:c++20 /permissive- /Yc"Thunder.h" /Fp"C:\MYSTUFF\TESTENGINE\\THUNDER\INTERMEDIATE\THUNDER\DEBUG\THUNDER.PCH" /Fo"C:\MYSTUFF\TESTENGINE\\THUNDER\INTERMEDIATE\THUNDER\DEBUG\\" /Fd"C:\MYSTUFF\TESTENGINE\\THUNDER\INTERMEDIATE\THUNDER\DEBUG\VC143.PDB" /external:W3 /Gd /TP /FC C:\MYSTUFF\TESTENGINE\THUNDER\SOURCE\CORE\PERGAMESETTINGS.CPP
^C:\MYSTUFF\TESTENGINE\THUNDER\SOURCE\ENGINE\OENGINE.CPP
/c /IC:\MYSTUFF\TESTENGINE\\THUNDER\SOURCE /ZI /JMC /nologo /W3 /WX- /diagnostics:column /sdl /Od /D _DEBUG /D WIN32 /D BUILD_DLL /D _WINDLL /D _UNICODE /D UNICODE /Gm- /EHsc /RTC1 /MDd /GS /fp:precise /Zc:wchar_t /Zc:forScope /Zc:inline /std:c++20 /permissive- /Yc"Thunder.h" /Fp"C:\MYSTUFF\TESTENGINE\\THUNDER\INTERMEDIATE\THUNDER\DEBUG\THUNDER.PCH" /Fo"C:\MYSTUFF\TESTENGINE\\THUNDER\INTERMEDIATE\THUNDER\DEBUG\\" /Fd"C:\MYSTUFF\TESTENGINE\\THUNDER\INTERMEDIATE\THUNDER\DEBUG\VC143.PDB" /external:W3 /Gd /TP /FC C:\MYSTUFF\TESTENGINE\THUNDER\SOURCE\ENGINE\OENGINE.CPP
^C:\MYSTUFF\TESTENGINE\THUNDER\SOURCE\ENGINE\SIMULATION.CPP
/c /IC:\MYSTUFF\TESTENGINE\\THUNDER\SOURCE /ZI /JMC /nologo /W3 /WX- /diagnostics:column /sdl /Od /D _DEBUG /D WIN32 /D BUILD_DLL /D _WINDLL /D _UNICODE /D UNICODE /Gm- /EHsc /RTC1 /MDd /GS /fp:precise /Zc:wchar_t /Zc:forScope /Zc:inline /std:c++20 /permissive- /Yc"Thunder.h" /Fp"C:\MYSTUFF\TESTENGINE\\THUNDER\INTERMEDIATE\THUNDER\DEBUG\THUNDER.PCH" /Fo"C:\MYSTUFF\TESTENGINE\\THUNDER\INTERMEDIATE\THUNDER\DEBUG\\" /Fd"C:\MYSTUFF\TESTENGINE\\THUNDER\INTERMEDIATE\THUNDER\DEBUG\VC143.PDB" /external:W3 /Gd /TP /FC C:\MYSTUFF\TESTENGINE\THUNDER\SOURCE\ENGINE\SIMULATION.CPP
^C:\MYSTUFF\TESTENGINE\THUNDER\SOURCE\ENGINE\SPLASHSCREEN.CPP
/c /IC:\MYSTUFF\TESTENGINE\\THUNDER\SOURCE /ZI /JMC /nologo /W3 /WX- /diagnostics:column /sdl /Od /D _DEBUG /D WIN32 /D BUILD_DLL /D _WINDLL /D _UNICODE /D UNICODE /Gm- /EHsc /RTC1 /MDd /GS /fp:precise /Zc:wchar_t /Zc:forScope /Zc:inline /std:c++20 /permissive- /Yc"Thunder.h" /Fp"C:\MYSTUFF\TESTENGINE\\THUNDER\INTERMEDIATE\THUNDER\DEBUG\THUNDER.PCH" /Fo"C:\MYSTUFF\TESTENGINE\\THUNDER\INTERMEDIATE\THUNDER\DEBUG\\" /Fd"C:\MYSTUFF\TESTENGINE\\THUNDER\INTERMEDIATE\THUNDER\DEBUG\VC143.PDB" /external:W3 /Gd /TP /FC C:\MYSTUFF\TESTENGINE\THUNDER\SOURCE\ENGINE\SPLASHSCREEN.CPP
^C:\MYSTUFF\TESTENGINE\THUNDER\SOURCE\PLATFORM\WIN32\IAPPLICATION.CPP
/c /IC:\MYSTUFF\TESTENGINE\\THUNDER\SOURCE /ZI /JMC /nologo /W3 /WX- /diagnostics:column /sdl /Od /D _DEBUG /D WIN32 /D BUILD_DLL /D _WINDLL /D _UNICODE /D UNICODE /Gm- /EHsc /RTC1 /MDd /GS /fp:precise /Zc:wchar_t /Zc:forScope /Zc:inline /std:c++20 /permissive- /Yc"Thunder.h" /Fp"C:\MYSTUFF\TESTENGINE\\THUNDER\INTERMEDIATE\THUNDER\DEBUG\THUNDER.PCH" /Fo"C:\MYSTUFF\TESTENGINE\\THUNDER\INTERMEDIATE\THUNDER\DEBUG\\" /Fd"C:\MYSTUFF\TESTENGINE\\THUNDER\INTERMEDIATE\THUNDER\DEBUG\VC143.PDB" /external:W3 /Gd /TP /FC C:\MYSTUFF\TESTENGINE\THUNDER\SOURCE\PLATFORM\WIN32\IAPPLICATION.CPP
^C:\MYSTUFF\TESTENGINE\THUNDER\SOURCE\PLATFORM\WIN32\CAPTION.CPP
/c /IC:\MYSTUFF\TESTENGINE\\THUNDER\SOURCE /ZI /JMC /nologo /W3 /WX- /diagnostics:column /sdl /Od /D _DEBUG /D WIN32 /D BUILD_DLL /D _WINDLL /D _UNICODE /D UNICODE /Gm- /EHsc /RTC1 /MDd /GS /fp:precise /Zc:wchar_t /Zc:forScope /Zc:inline /std:c++20 /permissive- /Yc"Thunder.h" /Fp"C:\MYSTUFF\TESTENGINE\\THUNDER\INTERMEDIATE\THUNDER\DEBUG\THUNDER.PCH" /Fo"C:\MYSTUFF\TESTENGINE\\THUNDER\INTERMEDIATE\THUNDER\DEBUG\\" /Fd"C:\MYSTUFF\TESTENGINE\\THUNDER\INTERMEDIATE\THUNDER\DEBUG\VC143.PDB" /external:W3 /Gd /TP /FC C:\MYSTUFF\TESTENGINE\THUNDER\SOURCE\PLATFORM\WIN32\CAPTION.CPP
^C:\MYSTUFF\TESTENGINE\THUNDER\SOURCE\PLATFORM\WIN32\SUBOBJECT.CPP
/c /IC:\MYSTUFF\TESTENGINE\\THUNDER\SOURCE /ZI /JMC /nologo /W3 /WX- /diagnostics:column /sdl /Od /D _DEBUG /D WIN32 /D BUILD_DLL /D _WINDLL /D _UNICODE /D UNICODE /Gm- /EHsc /RTC1 /MDd /GS /fp:precise /Zc:wchar_t /Zc:forScope /Zc:inline /std:c++20 /permissive- /Yc"Thunder.h" /Fp"C:\MYSTUFF\TESTENGINE\\THUNDER\INTERMEDIATE\THUNDER\DEBUG\THUNDER.PCH" /Fo"C:\MYSTUFF\TESTENGINE\\THUNDER\INTERMEDIATE\THUNDER\DEBUG\\" /Fd"C:\MYSTUFF\TESTENGINE\\THUNDER\INTERMEDIATE\THUNDER\DEBUG\VC143.PDB" /external:W3 /Gd /TP /FC C:\MYSTUFF\TESTENGINE\THUNDER\SOURCE\PLATFORM\WIN32\SUBOBJECT.CPP
^C:\MYSTUFF\TESTENGINE\THUNDER\SOURCE\PLATFORM\WIN32\WINDOW.CPP
/c /IC:\MYSTUFF\TESTENGINE\\THUNDER\SOURCE /ZI /JMC /nologo /W3 /WX- /diagnostics:column /sdl /Od /D _DEBUG /D WIN32 /D BUILD_DLL /D _WINDLL /D _UNICODE /D UNICODE /Gm- /EHsc /RTC1 /MDd /GS /fp:precise /Zc:wchar_t /Zc:forScope /Zc:inline /std:c++20 /permissive- /Yc"Thunder.h" /Fp"C:\MYSTUFF\TESTENGINE\\THUNDER\INTERMEDIATE\THUNDER\DEBUG\THUNDER.PCH" /Fo"C:\MYSTUFF\TESTENGINE\\THUNDER\INTERMEDIATE\THUNDER\DEBUG\\" /Fd"C:\MYSTUFF\TESTENGINE\\THUNDER\INTERMEDIATE\THUNDER\DEBUG\VC143.PDB" /external:W3 /Gd /TP /FC C:\MYSTUFF\TESTENGINE\THUNDER\SOURCE\PLATFORM\WIN32\WINDOW.CPP
^C:\MYSTUFF\TESTENGINE\THUNDER\SOURCE\THUNDER.CPP
/c /IC:\MYSTUFF\TESTENGINE\\THUNDER\SOURCE /ZI /JMC /nologo /W3 /WX- /diagnostics:column /sdl /Od /D _DEBUG /D WIN32 /D BUILD_DLL /D _WINDLL /D _UNICODE /D UNICODE /Gm- /EHsc /RTC1 /MDd /GS /fp:precise /Zc:wchar_t /Zc:forScope /Zc:inline /std:c++20 /permissive- /Yc"Thunder.h" /Fp"C:\MYSTUFF\TESTENGINE\\THUNDER\INTERMEDIATE\THUNDER\DEBUG\THUNDER.PCH" /Fo"C:\MYSTUFF\TESTENGINE\\THUNDER\INTERMEDIATE\THUNDER\DEBUG\\" /Fd"C:\MYSTUFF\TESTENGINE\\THUNDER\INTERMEDIATE\THUNDER\DEBUG\VC143.PDB" /external:W3 /Gd /TP /FC C:\MYSTUFF\TESTENGINE\THUNDER\SOURCE\THUNDER.CPP
^C:\MYSTUFF\TESTENGINE\THUNDER\SOURCE\UTILITIES\CMDLINEARGS.CPP
/c /IC:\MYSTUFF\TESTENGINE\\THUNDER\SOURCE /ZI /JMC /nologo /W3 /WX- /diagnostics:column /sdl /Od /D _DEBUG /D WIN32 /D BUILD_DLL /D _WINDLL /D _UNICODE /D UNICODE /Gm- /EHsc /RTC1 /MDd /GS /fp:precise /Zc:wchar_t /Zc:forScope /Zc:inline /std:c++20 /permissive- /Yc"Thunder.h" /Fp"C:\MYSTUFF\TESTENGINE\\THUNDER\INTERMEDIATE\THUNDER\DEBUG\THUNDER.PCH" /Fo"C:\MYSTUFF\TESTENGINE\\THUNDER\INTERMEDIATE\THUNDER\DEBUG\\" /Fd"C:\MYSTUFF\TESTENGINE\\THUNDER\INTERMEDIATE\THUNDER\DEBUG\VC143.PDB" /external:W3 /Gd /TP /FC C:\MYSTUFF\TESTENGINE\THUNDER\SOURCE\UTILITIES\CMDLINEARGS.CPP
^C:\MYSTUFF\TESTENGINE\THUNDER\SOURCE\UTILITIES\HELPERS.CPP
/c /IC:\MYSTUFF\TESTENGINE\\THUNDER\SOURCE /ZI /JMC /nologo /W3 /WX- /diagnostics:column /sdl /Od /D _DEBUG /D WIN32 /D BUILD_DLL /D _WINDLL /D _UNICODE /D UNICODE /Gm- /EHsc /RTC1 /MDd /GS /fp:precise /Zc:wchar_t /Zc:forScope /Zc:inline /std:c++20 /permissive- /Yc"Thunder.h" /Fp"C:\MYSTUFF\TESTENGINE\\THUNDER\INTERMEDIATE\THUNDER\DEBUG\THUNDER.PCH" /Fo"C:\MYSTUFF\TESTENGINE\\THUNDER\INTERMEDIATE\THUNDER\DEBUG\\" /Fd"C:\MYSTUFF\TESTENGINE\\THUNDER\INTERMEDIATE\THUNDER\DEBUG\VC143.PDB" /external:W3 /Gd /TP /FC C:\MYSTUFF\TESTENGINE\THUNDER\SOURCE\UTILITIES\HELPERS.CPP
^C:\MYSTUFF\TESTENGINE\THUNDER\SOURCE\UTILITIES\LOGGER.CPP
/c /IC:\MYSTUFF\TESTENGINE\\THUNDER\SOURCE /ZI /JMC /nologo /W3 /WX- /diagnostics:column /sdl /Od /D _DEBUG /D WIN32 /D BUILD_DLL /D _WINDLL /D _UNICODE /D UNICODE /Gm- /EHsc /RTC1 /MDd /GS /fp:precise /Zc:wchar_t /Zc:forScope /Zc:inline /std:c++20 /permissive- /Yc"Thunder.h" /Fp"C:\MYSTUFF\TESTENGINE\\THUNDER\INTERMEDIATE\THUNDER\DEBUG\THUNDER.PCH" /Fo"C:\MYSTUFF\TESTENGINE\\THUNDER\INTERMEDIATE\THUNDER\DEBUG\\" /Fd"C:\MYSTUFF\TESTENGINE\\THUNDER\INTERMEDIATE\THUNDER\DEBUG\VC143.PDB" /external:W3 /Gd /TP /FC C:\MYSTUFF\TESTENGINE\THUNDER\SOURCE\UTILITIES\LOGGER.CPP
^C:\MYSTUFF\TESTENGINE\THUNDER\SOURCE\UTILITIES\TIME.CPP
/c /IC:\MYSTUFF\TESTENGINE\\THUNDER\SOURCE /ZI /JMC /nologo /W3 /WX- /diagnostics:column /sdl /Od /D _DEBUG /D WIN32 /D BUILD_DLL /D _WINDLL /D _UNICODE /D UNICODE /Gm- /EHsc /RTC1 /MDd /GS /fp:precise /Zc:wchar_t /Zc:forScope /Zc:inline /std:c++20 /permissive- /Yc"Thunder.h" /Fp"C:\MYSTUFF\TESTENGINE\\THUNDER\INTERMEDIATE\THUNDER\DEBUG\THUNDER.PCH" /Fo"C:\MYSTUFF\TESTENGINE\\THUNDER\INTERMEDIATE\THUNDER\DEBUG\\" /Fd"C:\MYSTUFF\TESTENGINE\\THUNDER\INTERMEDIATE\THUNDER\DEBUG\VC143.PDB" /external:W3 /Gd /TP /FC C:\MYSTUFF\TESTENGINE\THUNDER\SOURCE\UTILITIES\TIME.CPP
^C:\MYSTUFF\TESTENGINE\THUNDER\SOURCE\UTILITIES\WIN32UTILS.CPP
/c /IC:\MYSTUFF\TESTENGINE\\THUNDER\SOURCE /ZI /JMC /nologo /W3 /WX- /diagnostics:column /sdl /Od /D _DEBUG /D WIN32 /D BUILD_DLL /D _WINDLL /D _UNICODE /D UNICODE /Gm- /EHsc /RTC1 /MDd /GS /fp:precise /Zc:wchar_t /Zc:forScope /Zc:inline /std:c++20 /permissive- /Yc"Thunder.h" /Fp"C:\MYSTUFF\TESTENGINE\\THUNDER\INTERMEDIATE\THUNDER\DEBUG\THUNDER.PCH" /Fo"C:\MYSTUFF\TESTENGINE\\THUNDER\INTERMEDIATE\THUNDER\DEBUG\\" /Fd"C:\MYSTUFF\TESTENGINE\\THUNDER\INTERMEDIATE\THUNDER\DEBUG\VC143.PDB" /external:W3 /Gd /TP /FC C:\MYSTUFF\TESTENGINE\THUNDER\SOURCE\UTILITIES\WIN32UTILS.CPP
