#Command: "C:\Program Files\Microsoft Visual Studio\2022\Community\VC\Tools\MSVC\14.30.30705\bin\HostX64\x64\link.exe" /ERRORREPORT:PROMPT @C:\Users\alexc\AppData\Local\Temp\tmpf7272be5de524728854d73176e0500ea.rsp /nologo /incremental /fullbuild
^C:\MYSTUFF\TESTENGINE\THUNDER\INTERMEDIATE\THUNDER\DEBUG\CAPTION.OBJ|C:\MYSTUFF\TESTENGINE\THUNDER\INTERMEDIATE\THUNDER\DEBUG\CMDLINEARGS.OBJ|C:\MYSTUFF\TESTENGINE\THUNDER\INTERMEDIATE\THUNDER\DEBUG\CORE.OBJ|C:\MYSTUFF\TESTENGINE\THUNDER\INTERMEDIATE\THUNDER\DEBUG\COREMINIMAL.OBJ|C:\MYSTUFF\TESTENGINE\THUNDER\INTERMEDIATE\THUNDER\DEBUG\DEFINITIONS.OBJ|C:\MYSTUFF\TESTENGINE\THUNDER\INTERMEDIATE\THUNDER\DEBUG\HELPERS.OBJ|C:\MYSTUFF\TESTENGINE\THUNDER\INTERMEDIATE\THUNDER\DEBUG\IAPPLICATION.OBJ|C:\MYSTUFF\TESTENGINE\THUNDER\INTERMEDIATE\THUNDER\DEBUG\LOGGER.OBJ|C:\MYSTUFF\TESTENGINE\THUNDER\INTERMEDIATE\THUNDER\DEBUG\OENGINE.OBJ|C:\MYSTUFF\TESTENGINE\THUNDER\INTERMEDIATE\THUNDER\DEBUG\PERGAMESETTINGS.OBJ|C:\MYSTUFF\TESTENGINE\THUNDER\INTERMEDIATE\THUNDER\DEBUG\SIMULATION.OBJ|C:\MYSTUFF\TESTENGINE\THUNDER\INTERMEDIATE\THUNDER\DEBUG\SPLASHSCREEN.OBJ|C:\MYSTUFF\TESTENGINE\THUNDER\INTERMEDIATE\THUNDER\DEBUG\SUBOBJECT.OBJ|C:\MYSTUFF\TESTENGINE\THUNDER\INTERMEDIATE\THUNDER\DEBUG\THUNDER.OBJ|C:\MYSTUFF\TESTENGINE\THUNDER\INTERMEDIATE\THUNDER\DEBUG\TIME.OBJ|C:\MYSTUFF\TESTENGINE\THUNDER\INTERMEDIATE\THUNDER\DEBUG\WIN32UTILS.OBJ|C:\MYSTUFF\TESTENGINE\THUNDER\INTERMEDIATE\THUNDER\DEBUG\WINDOW.OBJ
C:\USERS\ALEXC\APPDATA\LOCAL\TEMP\LNK{2CE49974-05B0-464C-A068-460F1EC0FC17}.TMP
