^C:\MYSTUFF\TESTENGINE\THUNDER\INTERMEDIATE\THUNDER\DEBUG\CAPTION.OBJ|C:\MYSTUFF\TESTENGINE\THUNDER\INTERMEDIATE\THUNDER\DEBUG\CMDLINEARGS.OBJ|C:\MYSTUFF\TESTENGINE\THUNDER\INTERMEDIATE\THUNDER\DEBUG\CORE.OBJ|C:\MYSTUFF\TESTENGINE\THUNDER\INTERMEDIATE\THUNDER\DEBUG\COREMINIMAL.OBJ|C:\MYSTUFF\TESTENGINE\THUNDER\INTERMEDIATE\THUNDER\DEBUG\DEFINITIONS.OBJ|C:\MYSTUFF\TESTENGINE\THUNDER\INTERMEDIATE\THUNDER\DEBUG\HELPERS.OBJ|C:\MYSTUFF\TESTENGINE\THUNDER\INTERMEDIATE\THUNDER\DEBUG\IAPPLICATION.OBJ|C:\MYSTUFF\TESTENGINE\THUNDER\INTERMEDIATE\THUNDER\DEBUG\LOGGER.OBJ|C:\MYSTUFF\TESTENGINE\THUNDER\INTERMEDIATE\THUNDER\DEBUG\OENGINE.OBJ|C:\MYSTUFF\TESTENGINE\THUNDER\INTERMEDIATE\THUNDER\DEBUG\PERGAMESETTINGS.OBJ|C:\MYSTUFF\TESTENGINE\THUNDER\INTERMEDIATE\THUNDER\DEBUG\SIMULATION.OBJ|C:\MYSTUFF\TESTENGINE\THUNDER\INTERMEDIATE\THUNDER\DEBUG\SPLASHSCREEN.OBJ|C:\MYSTUFF\TESTENGINE\THUNDER\INTERMEDIATE\THUNDER\DEBUG\SUBOBJECT.OBJ|C:\MYSTUFF\TESTENGINE\THUNDER\INTERMEDIATE\THUNDER\DEBUG\THUNDER.OBJ|C:\MYSTUFF\TESTENGINE\THUNDER\INTERMEDIATE\THUNDER\DEBUG\TIME.OBJ|C:\MYSTUFF\TESTENGINE\THUNDER\INTERMEDIATE\THUNDER\DEBUG\WIN32UTILS.OBJ|C:\MYSTUFF\TESTENGINE\THUNDER\INTERMEDIATE\THUNDER\DEBUG\WINDOW.OBJ
C:\PROGRAM FILES (X86)\WINDOWS KITS\10\LIB\10.0.22000.0\UM\X64\KERNEL32.LIB
C:\PROGRAM FILES (X86)\WINDOWS KITS\10\LIB\10.0.22000.0\UM\X64\USER32.LIB
C:\PROGRAM FILES (X86)\WINDOWS KITS\10\LIB\10.0.22000.0\UM\X64\GDI32.LIB
C:\PROGRAM FILES (X86)\WINDOWS KITS\10\LIB\10.0.22000.0\UM\X64\WINSPOOL.LIB
C:\PROGRAM FILES (X86)\WINDOWS KITS\10\LIB\10.0.22000.0\UM\X64\COMDLG32.LIB
C:\PROGRAM FILES (X86)\WINDOWS KITS\10\LIB\10.0.22000.0\UM\X64\ADVAPI32.LIB
C:\PROGRAM FILES (X86)\WINDOWS KITS\10\LIB\10.0.22000.0\UM\X64\SHELL32.LIB
C:\PROGRAM FILES (X86)\WINDOWS KITS\10\LIB\10.0.22000.0\UM\X64\OLE32.LIB
C:\PROGRAM FILES (X86)\WINDOWS KITS\10\LIB\10.0.22000.0\UM\X64\OLEAUT32.LIB
C:\PROGRAM FILES (X86)\WINDOWS KITS\10\LIB\10.0.22000.0\UM\X64\UUID.LIB
C:\PROGRAM FILES (X86)\WINDOWS KITS\10\LIB\10.0.22000.0\UM\X64\ODBC32.LIB
C:\PROGRAM FILES (X86)\WINDOWS KITS\10\LIB\10.0.22000.0\UM\X64\ODBCCP32.LIB
C:\MYSTUFF\TESTENGINE\THUNDER\INTERMEDIATE\THUNDER\DEBUG\CAPTION.OBJ
C:\MYSTUFF\TESTENGINE\THUNDER\INTERMEDIATE\THUNDER\DEBUG\CORE.OBJ
C:\MYSTUFF\TESTENGINE\THUNDER\INTERMEDIATE\THUNDER\DEBUG\COREMINIMAL.OBJ
C:\MYSTUFF\TESTENGINE\THUNDER\INTERMEDIATE\THUNDER\DEBUG\DEFINITIONS.OBJ
C:\MYSTUFF\TESTENGINE\THUNDER\INTERMEDIATE\THUNDER\DEBUG\PERGAMESETTINGS.OBJ
C:\MYSTUFF\TESTENGINE\THUNDER\INTERMEDIATE\THUNDER\DEBUG\OENGINE.OBJ
C:\MYSTUFF\TESTENGINE\THUNDER\INTERMEDIATE\THUNDER\DEBUG\SIMULATION.OBJ
C:\MYSTUFF\TESTENGINE\THUNDER\INTERMEDIATE\THUNDER\DEBUG\SPLASHSCREEN.OBJ
C:\MYSTUFF\TESTENGINE\THUNDER\INTERMEDIATE\THUNDER\DEBUG\IAPPLICATION.OBJ
C:\MYSTUFF\TESTENGINE\THUNDER\INTERMEDIATE\THUNDER\DEBUG\SUBOBJECT.OBJ
C:\MYSTUFF\TESTENGINE\THUNDER\INTERMEDIATE\THUNDER\DEBUG\WINDOW.OBJ
C:\MYSTUFF\TESTENGINE\THUNDER\INTERMEDIATE\THUNDER\DEBUG\THUNDER.OBJ
C:\MYSTUFF\TESTENGINE\THUNDER\INTERMEDIATE\THUNDER\DEBUG\CMDLINEARGS.OBJ
C:\MYSTUFF\TESTENGINE\THUNDER\INTERMEDIATE\THUNDER\DEBUG\HELPERS.OBJ
C:\MYSTUFF\TESTENGINE\THUNDER\INTERMEDIATE\THUNDER\DEBUG\LOGGER.OBJ
C:\MYSTUFF\TESTENGINE\THUNDER\INTERMEDIATE\THUNDER\DEBUG\TIME.OBJ
C:\MYSTUFF\TESTENGINE\THUNDER\INTERMEDIATE\THUNDER\DEBUG\WIN32UTILS.OBJ
C:\MYSTUFF\TESTENGINE\THUNDER\INTERMEDIATE\THUNDER\DEBUG\THUNDER.ILK
C:\WINDOWS\SYSTEM32\TZRES.DLL
C:\WINDOWS\GLOBALIZATION\SORTING\SORTDEFAULT.NLS
C:\PROGRAM FILES\MICROSOFT VISUAL STUDIO\2022\COMMUNITY\VC\TOOLS\MSVC\14.30.30705\LIB\X64\MSVCPRTD.LIB
C:\PROGRAM FILES (X86)\WINDOWS KITS\10\LIB\10.0.22000.0\UM\X64\UXTHEME.LIB
C:\PROGRAM FILES\MICROSOFT VISUAL STUDIO\2022\COMMUNITY\VC\TOOLS\MSVC\14.30.30705\LIB\X64\MSVCRTD.LIB
C:\PROGRAM FILES\MICROSOFT VISUAL STUDIO\2022\COMMUNITY\VC\TOOLS\MSVC\14.30.30705\LIB\X64\OLDNAMES.LIB
C:\PROGRAM FILES\MICROSOFT VISUAL STUDIO\2022\COMMUNITY\VC\TOOLS\MSVC\14.30.30705\LIB\X64\VCRUNTIMED.LIB
C:\PROGRAM FILES (X86)\WINDOWS KITS\10\LIB\10.0.22000.0\UCRT\X64\UCRTD.LIB
C:\PROGRAM FILES\MICROSOFT VISUAL STUDIO\2022\COMMUNITY\VC\TOOLS\MSVC\14.30.30705\BIN\HOSTX64\X64\1033\LINKUI.DLL
C:\PROGRAM FILES\MICROSOFT VISUAL STUDIO\2022\COMMUNITY\VC\TOOLS\MSVC\14.30.30705\BIN\HOSTX64\X64\CVTRES.EXE
C:\MYSTUFF\TESTENGINE\THUNDER\INTERMEDIATE\THUNDER\DEBUG\VC143.PDB
