^C:\MyStuff\testengine\Thunder\Thunder.vcxproj
C:\MyStuff\testengine\Build\Thunder\Debug\Thunder.lib
C:\MyStuff\testengine\Build\Thunder\Debug\Thunder.exp
^C:\MyStuff\testengine\Thunder\Thunder.vcxproj
C:\MyStuff\testengine\Build\Debug\Thunder.lib
C:\MyStuff\testengine\Build\Debug\Thunder.exp
^C:\MyStuff\testengine\Thunder\Thunder.vcxproj
C:\MyStuff\testengine\Build\Debug\Thunder.lib
C:\MyStuff\testengine\Build\Debug\Thunder.exp
^C:\MyStuff\testengine\Thunder\Thunder.vcxproj
C:\MyStuff\testengine\Build\Debug\Thunder.lib
C:\MyStuff\testengine\Build\Debug\Thunder.exp
^C:\MyStuff\testengine\Thunder\Thunder.vcxproj
C:\MyStuff\testengine\Build\Debug\Thunder.lib
C:\MyStuff\testengine\Build\Debug\Thunder.exp
^C:\MyStuff\testengine\Thunder\Thunder.vcxproj
C:\MyStuff\testengine\Build\Debug\Thunder.lib
C:\MyStuff\testengine\Build\Debug\Thunder.exp
^C:\MyStuff\testengine\Thunder\Thunder.vcxproj
C:\MyStuff\testengine\Build\Debug\Thunder.lib
C:\MyStuff\testengine\Build\Debug\Thunder.exp
^C:\MyStuff\testengine\Thunder\Thunder.vcxproj
C:\MyStuff\testengine\Build\Debug\Thunder.lib
C:\MyStuff\testengine\Build\Debug\Thunder.exp
^C:\MyStuff\testengine\Thunder\Thunder.vcxproj
C:\MyStuff\testengine\Build\Debug\Thunder.lib
C:\MyStuff\testengine\Build\Debug\Thunder.exp
^C:\MyStuff\testengine\Thunder\Thunder.vcxproj
C:\MyStuff\testengine\Build\Debug\Thunder.lib
C:\MyStuff\testengine\Build\Debug\Thunder.exp
^C:\MyStuff\testengine\Thunder\Thunder.vcxproj
C:\MyStuff\testengine\Build\Debug\Thunder.lib
C:\MyStuff\testengine\Build\Debug\Thunder.exp
^C:\MyStuff\testengine\Thunder\Thunder.vcxproj
C:\MyStuff\testengine\Build\Debug\Thunder.lib
C:\MyStuff\testengine\Build\Debug\Thunder.exp
^C:\MyStuff\testengine\Thunder\Thunder.vcxproj
C:\MyStuff\testengine\Build\Debug\Thunder.lib
C:\MyStuff\testengine\Build\Debug\Thunder.exp
^C:\MyStuff\testengine\Thunder\Thunder.vcxproj
C:\MyStuff\testengine\Build\Debug\Thunder.lib
C:\MyStuff\testengine\Build\Debug\Thunder.exp
^C:\MyStuff\testengine\Thunder\Thunder.vcxproj
C:\MyStuff\testengine\Build\Debug\Thunder.lib
C:\MyStuff\testengine\Build\Debug\Thunder.exp
^C:\MyStuff\testengine\Thunder\Thunder.vcxproj
C:\MyStuff\testengine\Build\Debug\Thunder.lib
C:\MyStuff\testengine\Build\Debug\Thunder.exp
^C:\MyStuff\testengine\Thunder\Thunder.vcxproj
C:\MyStuff\testengine\Build\Debug\Thunder.lib
C:\MyStuff\testengine\Build\Debug\Thunder.exp
^C:\MyStuff\testengine\Thunder\Thunder.vcxproj
C:\MyStuff\testengine\Build\Debug\Thunder.lib
C:\MyStuff\testengine\Build\Debug\Thunder.exp
^C:\MyStuff\testengine\Thunder\Thunder.vcxproj
C:\MyStuff\testengine\Build\Debug\Thunder.lib
C:\MyStuff\testengine\Build\Debug\Thunder.exp
^C:\MyStuff\testengine\Thunder\Thunder.vcxproj
C:\MyStuff\testengine\Build\Debug\Thunder.lib
C:\MyStuff\testengine\Build\Debug\Thunder.exp
^C:\MyStuff\testengine\Thunder\Thunder.vcxproj
C:\MyStuff\testengine\Build\Debug\Thunder.lib
C:\MyStuff\testengine\Build\Debug\Thunder.exp
^C:\MyStuff\testengine\Thunder\Thunder.vcxproj
C:\MyStuff\testengine\Build\Debug\Thunder.lib
C:\MyStuff\testengine\Build\Debug\Thunder.exp
^C:\MyStuff\testengine\Thunder\Thunder.vcxproj
C:\MyStuff\testengine\Build\Debug\Thunder.lib
C:\MyStuff\testengine\Build\Debug\Thunder.exp
^C:\MyStuff\testengine\Thunder\Thunder.vcxproj
C:\MyStuff\testengine\Build\Debug\Thunder.lib
C:\MyStuff\testengine\Build\Debug\Thunder.exp
^C:\MyStuff\testengine\Thunder\Thunder.vcxproj
C:\MyStuff\testengine\Build\Debug\Thunder.lib
C:\MyStuff\testengine\Build\Debug\Thunder.exp
^C:\MyStuff\testengine\Thunder\Thunder.vcxproj
C:\MyStuff\testengine\Build\Debug\Thunder.lib
C:\MyStuff\testengine\Build\Debug\Thunder.exp
^C:\MyStuff\testengine\Thunder\Thunder.vcxproj
C:\MyStuff\testengine\Build\Debug\Thunder.lib
C:\MyStuff\testengine\Build\Debug\Thunder.exp
^C:\MyStuff\testengine\Thunder\Thunder.vcxproj
C:\MyStuff\testengine\Build\Debug\Thunder.lib
C:\MyStuff\testengine\Build\Debug\Thunder.exp
^C:\MyStuff\testengine\Thunder\Thunder.vcxproj
C:\MyStuff\testengine\Build\Debug\Thunder.lib
C:\MyStuff\testengine\Build\Debug\Thunder.exp
^C:\MyStuff\testengine\Thunder\Thunder.vcxproj
C:\MyStuff\testengine\Build\Debug\Thunder.lib
C:\MyStuff\testengine\Build\Debug\Thunder.exp
^C:\MyStuff\testengine\Thunder\Thunder.vcxproj
C:\MyStuff\testengine\Build\Debug\Thunder.lib
C:\MyStuff\testengine\Build\Debug\Thunder.exp
^C:\MyStuff\testengine\Thunder\Thunder.vcxproj
C:\MyStuff\testengine\Build\Debug\Thunder.lib
C:\MyStuff\testengine\Build\Debug\Thunder.exp
^C:\MyStuff\testengine\Thunder\Thunder.vcxproj
C:\MyStuff\testengine\Build\Debug\Thunder.lib
C:\MyStuff\testengine\Build\Debug\Thunder.exp
^C:\MyStuff\testengine\Thunder\Thunder.vcxproj
C:\MyStuff\testengine\Build\Debug\Thunder.lib
C:\MyStuff\testengine\Build\Debug\Thunder.exp
^C:\MyStuff\testengine\Thunder\Thunder.vcxproj
C:\MyStuff\testengine\Build\Debug\Thunder.lib
C:\MyStuff\testengine\Build\Debug\Thunder.exp
^C:\MyStuff\testengine\Thunder\Thunder.vcxproj
C:\MyStuff\testengine\Build\Debug\Thunder.lib
C:\MyStuff\testengine\Build\Debug\Thunder.exp
^C:\MyStuff\testengine\Thunder\Thunder.vcxproj
C:\MyStuff\testengine\Build\Debug\Thunder.lib
C:\MyStuff\testengine\Build\Debug\Thunder.exp
^C:\MyStuff\testengine\Thunder\Thunder.vcxproj
C:\MyStuff\testengine\Build\Debug\Thunder.lib
C:\MyStuff\testengine\Build\Debug\Thunder.exp
^C:\MyStuff\testengine\Thunder\Thunder.vcxproj
C:\MyStuff\testengine\Build\Debug\Thunder.lib
C:\MyStuff\testengine\Build\Debug\Thunder.exp
^C:\MyStuff\testengine\Thunder\Thunder.vcxproj
C:\MyStuff\testengine\Build\Debug\Thunder.lib
C:\MyStuff\testengine\Build\Debug\Thunder.exp
^C:\MyStuff\testengine\Thunder\Thunder.vcxproj
C:\MyStuff\testengine\Build\Debug\Thunder.lib
C:\MyStuff\testengine\Build\Debug\Thunder.exp
^C:\MyStuff\testengine\Thunder\Thunder.vcxproj
C:\MyStuff\testengine\Build\Debug\Thunder.lib
C:\MyStuff\testengine\Build\Debug\Thunder.exp
^C:\MyStuff\testengine\Thunder\Thunder.vcxproj
C:\MyStuff\testengine\Build\Debug\Thunder.lib
C:\MyStuff\testengine\Build\Debug\Thunder.exp
^C:\MyStuff\testengine\Thunder\Thunder.vcxproj
C:\MyStuff\testengine\Build\Debug\Thunder.lib
C:\MyStuff\testengine\Build\Debug\Thunder.exp
